<?xml version="1.0" encoding="UTF-8" standalone="no"?>
<!-- Created with Inkscape (http://www.inkscape.org/) -->

<svg
   xmlns:dc="http://purl.org/dc/elements/1.1/"
   xmlns:cc="http://creativecommons.org/ns#"
   xmlns:rdf="http://www.w3.org/1999/02/22-rdf-syntax-ns#"
   xmlns:svg="http://www.w3.org/2000/svg"
   xmlns="http://www.w3.org/2000/svg"
   xmlns:sodipodi="http://sodipodi.sourceforge.net/DTD/sodipodi-0.dtd"
   xmlns:inkscape="http://www.inkscape.org/namespaces/inkscape"
   width="151.09637mm"
   height="151.09637mm"
   viewBox="0 0 535.38085 535.38085"
   id="svg2"
   version="1.1"
   inkscape:version="0.91 r13725"
   sodipodi:docname="action_n.svg">
  <defs
     id="defs4" />
  <sodipodi:namedview
     id="base"
     pagecolor="#ffffff"
     bordercolor="#666666"
     borderopacity="1.0"
     inkscape:pageopacity="0.0"
     inkscape:pageshadow="2"
     inkscape:zoom="0.98994949"
     inkscape:cx="115.16912"
     inkscape:cy="125.67002"
     inkscape:document-units="px"
     inkscape:current-layer="layer1"
     showgrid="false"
     fit-margin-top="0"
     fit-margin-left="0"
     fit-margin-right="0"
     fit-margin-bottom="0"
     inkscape:window-width="1920"
     inkscape:window-height="1057"
     inkscape:window-x="-8"
     inkscape:window-y="1072"
     inkscape:window-maximized="1"
     inkscape:snap-bbox="true"
     inkscape:bbox-paths="true" />
  <metadata
     id="metadata7">
    <rdf:RDF>
      <cc:Work
         rdf:about="">
        <dc:format>image/svg+xml</dc:format>
        <dc:type
           rdf:resource="http://purl.org/dc/dcmitype/StillImage" />
        <dc:title></dc:title>
      </cc:Work>
    </rdf:RDF>
  </metadata>
  <g
     inkscape:label="Layer 1"
     inkscape:groupmode="layer"
     id="layer1"
     transform="translate(-90.913727,-171.50919)">
    <path
       style="fill:#4d4d4d;fill-rule:evenodd;stroke:none;stroke-width:1px;stroke-linecap:butt;stroke-linejoin:miter;stroke-opacity:1"
       d="M 267.68945 197.67383 A 70.017426 70.017426 0 0 0 197.67383 267.68945 A 70.017426 70.017426 0 0 0 267.68945 337.70703 A 70.017426 70.017426 0 0 0 337.70703 267.68945 A 70.017426 70.017426 0 0 0 267.68945 197.67383 z M 267.68945 213.38672 A 54.303139 54.303139 0 0 1 321.99414 267.68945 A 54.303139 54.303139 0 0 1 267.68945 321.99414 A 54.303139 54.303139 0 0 1 213.38672 267.68945 A 54.303139 54.303139 0 0 1 267.68945 213.38672 z "
       transform="translate(90.913727,171.50919)"
       id="path3336" />
    <rect
       y="-626.29456"
       x="364.44833"
       height="149.50258"
       width="149.50258"
       id="rect3357"
       style="fill:#ffffff;stroke:none;opacity:0.25;fill-opacity:1"
       transform="matrix(0,1,-1,0,0,0)" />
    <path
       id="path4253"
       d="m 476.79199,364.44865 0,149.50195 149.50196,0 0,-149.50195 -149.50196,0 z m 13.13086,13.13282 123.24024,0 0,123.23827 -123.24024,0 0,-123.23827 z"
       style="opacity:1;fill:#bdc5db;fill-opacity:1;stroke:none"
       inkscape:connector-curvature="0" />
    <rect
       style="fill:#ffffff;stroke:none;opacity:0.25;fill-opacity:1"
       id="rect3338-9"
       width="149.50258"
       height="149.50258"
       x="283.85287"
       y="557.38745" />
    <rect
       style="fill:#ffffff;stroke:none;opacity:0.25;fill-opacity:1"
       id="rect3338"
       width="149.50258"
       height="149.50258"
       x="283.85287"
       y="171.50919" />
    <rect
       y="364.44858"
       x="90.913727"
       height="149.50258"
       width="149.50258"
       id="rect4197"
       style="opacity:0.25;fill:#ffffff;stroke:none;fill-opacity:1" />
    <path
       inkscape:connector-curvature="0"
       style="opacity:1;fill:#bdc5db;fill-opacity:1;stroke:none"
       d="m 283.85319,171.50951 0,149.50195 149.50196,0 0,-149.50195 -149.50196,0 z m 13.13086,13.13281 123.24024,0 0,123.23828 -123.24024,0 0,-123.23828 z"
       id="rect4244" />
    <path
       inkscape:connector-curvature="0"
       style="opacity:1;fill:#bdc5db;fill-opacity:1;stroke:none"
       d="m 90.914359,364.44953 0,149.50195 149.501961,0 0,-149.50195 -149.501961,0 z m 13.130861,13.13282 123.24024,0 0,123.23827 -123.24024,0 0,-123.23827 z"
       id="path4259" />
    <path
       id="path4265"
       d="m 283.85288,557.38777 0,149.50195 149.50197,0 0,-149.50195 -149.50197,0 z m 13.13087,13.13282 123.24024,0 0,123.23827 -123.24024,0 0,-123.23827 z"
       style="opacity:1;fill:#bdc5db;fill-opacity:1;stroke:none"
       inkscape:connector-curvature="0" />
    <path
       style="opacity:1;fill:#b78bc0;fill-opacity:1;stroke:none"
       d="m 451.73795,321.1968 -53.91992,0 0,119.93555 -78.42774,0 0,-119.93555 -53.91993,0 93.13478,-135.31054 z"
       id="rect5133"
       inkscape:connector-curvature="0"
       sodipodi:nodetypes="cccccccc" />
    <circle
       r="38.588856"
       cy="439.19962"
       cx="358.60416"
       id="circle4194"
       style="fill:#4d4d4d;fill-rule:evenodd;stroke:none;stroke-width:1px;stroke-linecap:butt;stroke-linejoin:miter;stroke-opacity:1" />
  </g>
</svg>
