<?xml version="1.0" encoding="UTF-8" standalone="no"?>
<!-- Created with Inkscape (http://www.inkscape.org/) -->

<svg
   xmlns:dc="http://purl.org/dc/elements/1.1/"
   xmlns:cc="http://creativecommons.org/ns#"
   xmlns:rdf="http://www.w3.org/1999/02/22-rdf-syntax-ns#"
   xmlns:svg="http://www.w3.org/2000/svg"
   xmlns="http://www.w3.org/2000/svg"
   xmlns:sodipodi="http://sodipodi.sourceforge.net/DTD/sodipodi-0.dtd"
   xmlns:inkscape="http://www.inkscape.org/namespaces/inkscape"
   width="151.09637mm"
   height="151.09637mm"
   viewBox="0 0 535.38085 535.38085"
   id="svg2"
   version="1.1"
   inkscape:version="0.91 r13725"
   sodipodi:docname="rule_s.svg">
  <defs
     id="defs4" />
  <sodipodi:namedview
     id="base"
     pagecolor="#ffffff"
     bordercolor="#666666"
     borderopacity="1.0"
     inkscape:pageopacity="0.0"
     inkscape:pageshadow="2"
     inkscape:zoom="0.7"
     inkscape:cx="616.47335"
     inkscape:cy="244.99137"
     inkscape:document-units="px"
     inkscape:current-layer="layer1"
     showgrid="false"
     fit-margin-top="0"
     fit-margin-left="0"
     fit-margin-right="0"
     fit-margin-bottom="0"
     inkscape:window-width="1920"
     inkscape:window-height="1057"
     inkscape:window-x="-8"
     inkscape:window-y="1072"
     inkscape:window-maximized="1" />
  <metadata
     id="metadata7">
    <rdf:RDF>
      <cc:Work
         rdf:about="">
        <dc:format>image/svg+xml</dc:format>
        <dc:type
           rdf:resource="http://purl.org/dc/dcmitype/StillImage" />
        <dc:title></dc:title>
      </cc:Work>
    </rdf:RDF>
  </metadata>
  <g
     inkscape:label="Layer 1"
     inkscape:groupmode="layer"
     id="layer1"
     transform="translate(-90.913727,-171.50919)">
    <path
       style="fill:#4d4d4d;fill-rule:evenodd;stroke:none;stroke-width:1px;stroke-linecap:butt;stroke-linejoin:miter;stroke-opacity:1"
       d="M 267.68945 197.67383 A 70.017426 70.017426 0 0 0 197.67383 267.68945 A 70.017426 70.017426 0 0 0 267.68945 337.70703 A 70.017426 70.017426 0 0 0 337.70703 267.68945 A 70.017426 70.017426 0 0 0 267.68945 197.67383 z M 267.68945 213.38672 A 54.303139 54.303139 0 0 1 321.99414 267.68945 A 54.303139 54.303139 0 0 1 267.68945 321.99414 A 54.303139 54.303139 0 0 1 213.38672 267.68945 A 54.303139 54.303139 0 0 1 267.68945 213.38672 z "
       transform="translate(90.913727,171.50919)"
       id="path3336" />
    <rect
       style="fill:#cccccc;stroke:none"
       id="rect3338-9"
       width="149.50258"
       height="149.50258"
       x="283.85287"
       y="557.38745" />
    <circle
       r="38.588856"
       cy="439.19962"
       cx="358.60416"
       id="circle4194"
       style="fill:#4d4d4d;fill-rule:evenodd;stroke:none;stroke-width:1px;stroke-linecap:butt;stroke-linejoin:miter;stroke-opacity:1" />
  </g>
</svg>
